{
  "results": [
    {
      "vote_count": 863,
      "id": 166426,
      "video": false,
      "vote_average": 6.6,
      "title": "Piratas do Caribe: A Vingança de Salazar",
      "popularity": 213.468872,
      "poster_path": "/xHGwFcaWy6Ng6MagII45P3w0wOw.jpg",
      "original_language": "en",
      "original_title": "Pirates of the Caribbean: Dead Men Tell No Tales",
      "genre_ids": [
        28,
        12,
        35,
        14
      ],
      "backdrop_path": "/3DVKG54lqYbdh8RNylXeCf4MBPw.jpg",
      "adult": false,
      "overview": "O Capitão Jack, que anda passando por uma onda de azar, sente os ventos da má sorte soprando com muita força quando os marinheiros fantasmas assassinos, liderados pelo aterrorizante Capitão Salazar (Javier Bardem), escapam do triângulo do diabo decididos a matar todos os piratas em seu caminho, especialmente Jack.",
      "release_date": "2017-05-25"
    },
    {
      "vote_count": 524,
      "id": 297762,
      "video": false,
      "vote_average": 7.2,
      "title": "Mulher-Maravilha",
      "popularity": 111.897609,
      "poster_path": "/ujQthWB6c0ojlARk28NSTmqidbF.jpg",
      "original_language": "en",
      "original_title": "Wonder Woman",
      "genre_ids": [
        28,
        12,
        14,
        878
      ],
      "backdrop_path": "/hA5oCgvgCxj5MEWcLpjXXTwEANF.jpg",
      "adult": false,
      "overview": "Antes de ser Mulher-Maravilha, ela era Diana, princesa das Amazonas, treinada para ser uma guerreira imbatível. Criada numa ilha paraíso protegida e escondida, tudo muda quando um piloto americano chega em seu território e avisa sobre um grande conflito tomando forma no mundo. Diana deixa seu lar convencida de que pode impedir a ameaça crescente. Lutando ao lado dos homens em uma guerra para dar fim a todas as outras, Diana descobre seus poderes… e seu destino.",
      "release_date": "2017-06-01"
    },
    {
      "vote_count": 925,
      "id": 126889,
      "video": false,
      "vote_average": 6,
      "title": "Alien: Covenant",
      "popularity": 32.852538,
      "poster_path": "/ewVHnq4lUiovxBCu64qxq5bT2lu.jpg",
      "original_language": "en",
      "original_title": "Alien: Covenant",
      "genre_ids": [
        27,
        878,
        53
      ],
      "backdrop_path": "/kMU8trT43p5LFoJ4plIySMOsZ1T.jpg",
      "adult": false,
      "overview": "Ridley Scott retorna ao universo que criou com ALIEN: COVENANT, um novo capítulo em sua inovadora franquia ALIEN. A tripulação do navio-colônia Covenant, ligada a um remoto planeta no lado distante da galáxia, descobre o que eles acham que é um paraíso inexplorado, mas na verdade é um mundo escuro e perigoso. Quando descobrem uma ameaça além de sua imaginação, devem tentar uma fuga angustiante.",
      "release_date": "2017-05-11"
    },
    {
      "vote_count": 1563,
      "id": 419430,
      "video": false,
      "vote_average": 7.1,
      "title": "Corra!",
      "popularity": 24.643057,
      "poster_path": "/A0RoSZh8PEYJgDMgM2EV7Ycz3dR.jpg",
      "original_language": "en",
      "original_title": "Get Out",
      "genre_ids": [
        9648,
        53,
        27
      ],
      "backdrop_path": "/Ae58bf7Yj6OPzwKerPgXSnxCJdh.jpg",
      "adult": false,
      "overview": "Agora que Chris e sua namorada, Rose, chegaram à fase de conhecer os pais no namoro, ela o convida para um fim de semana no interior com Missy e Dean. A princípio, Chris acha que o comportamento excessivamente agradável dos dois como tentativas nervosas de lidar com o relacionamento inter-racial da filha, mas, conforme o fim de semana avança, uma série de descobertas cada vez mais perturbadoras o levam a uma verdade que ele jamais poderia ter imaginado.",
      "release_date": "2017-05-18"
    },
    {
      "vote_count": 42,
      "id": 282035,
      "video": false,
      "vote_average": 5.1,
      "title": "A Múmia",
      "popularity": 17.82816,
      "poster_path": "/vH9Hd7njePEe6xnRrYYaDmF2yqX.jpg",
      "original_language": "en",
      "original_title": "The Mummy",
      "genre_ids": [
        28,
        12,
        14,
        27,
        53
      ],
      "backdrop_path": "/qedJJ2z9oBYKxxO4Pp8qAkfgPst.jpg",
      "adult": false,
      "overview": "Nas profundezas do deserto, uma antiga rainha (Sofia Boutella) cujo destino foi injustamente tirado está mumificada. Apesar de estar sepultada em sua cripta, ela desperta nos dias atuais. Com uma maldade acumulada ao longo dos anos, ela espelha terror desde as areais do Oriente Médio até os becos de Londres.",
      "release_date": "2017-06-08"
    },
    {
      "vote_count": 332,
      "id": 274857,
      "video": false,
      "vote_average": 6.4,
      "title": "Rei Arthur: A Lenda da Espada",
      "popularity": 11.654765,
      "poster_path": "/4tGAP9Q00sqI9iF7GXnEOtkvonk.jpg",
      "original_language": "en",
      "original_title": "King Arthur: Legend of the Sword",
      "genre_ids": [
        28,
        18,
        14
      ],
      "backdrop_path": "/22eFfWlar6MtXO5qG25TkjLphoj.jpg",
      "adult": false,
      "overview": "Arthur (Charlie Hunnam) é um jovem das ruas que controla os becos de Londonium e desconhece sua predestinação até o momento em que entra em contato pela primeira vez com a Excalibur. Desafiado pela espada, ele precisa tomar difíceis decisões, enfrentar seus demônios e aprender a dominar o poder que possui para conseguir, enfim, unir seu povo e partir para a luta contra o tirano Vortigern, que destruiu sua família.",
      "release_date": "2017-05-18"
    },
    {
      "vote_count": 152,
      "id": 397837,
      "video": false,
      "vote_average": 6.2,
      "title": "Antes Que Eu Vá",
      "popularity": 7.665302,
      "poster_path": "/oMZ2ROBxbWsuDJO1PZHfXayiNbz.jpg",
      "original_language": "en",
      "original_title": "Before I Fall",
      "genre_ids": [
        18,
        9648,
        53
      ],
      "backdrop_path": "/l0KTMyzgXGKYd7xR8YgFCxlA5pU.jpg",
      "adult": false,
      "overview": "Samantha Kingston (Zoey Deutch) é uma jovem que tem tudo o que uma jovem pode desejar da vida.. No entanto, essa vida perfeita chega a um final abrupto e repentino no dia 12 de fevereiro, um dia que seria um dia como outro qualquer se não fosse o dia de sua morte. Porém, segundos antes de realmente morrer, ela terá a oportunidade de mudar a sua última semana e, talvez, o seu destino.",
      "release_date": "2017-05-25"
    },
    {
      "vote_count": 461,
      "id": 397243,
      "video": false,
      "vote_average": 6.4,
      "title": "A Autópsia",
      "popularity": 5.693122,
      "poster_path": "/xjxUdayo11X2XaTNUZLtilWahKq.jpg",
      "original_language": "en",
      "original_title": "The Autopsy of Jane Doe",
      "genre_ids": [
        27,
        9648
      ],
      "backdrop_path": "/m4LtS8NoVvbl57mej9KBg9QT4fg.jpg",
      "adult": false,
      "overview": "Tommy Tilden (Brian Cox) e Austin Tilden (Emile Hirsch), seu filho, são os reponsáveis por comandar o necrotério de uma pequena cidade do interior dos Estados Unidos. Os trabalhos que recebem costumam ser muito tranquilos por causa da natureza pacata da cidade, mas, certo dia, o xerife local (Michael McElhatton) traz um caso complicado: uma mulher desconhecida foi encontrada morta nos arredores da cidade - \"Jane Doe\", no jargão americano. Conforme pai e filho tentam descobrir a identidade da mulher morta, coisas estranhas e perigosas começam a ocorrer, colocando a vida dos dois em perigo.",
      "release_date": "2017-05-04"
    },
    {
      "vote_count": 125,
      "id": 339967,
      "video": false,
      "vote_average": 6.4,
      "title": "Colossal",
      "popularity": 5.093404,
      "poster_path": "/4VOyofBd1pexblxtDZYtYIk7NI4.jpg",
      "original_language": "en",
      "original_title": "Colossal",
      "genre_ids": [
        28,
        35,
        18,
        14,
        878
      ],
      "backdrop_path": "/y5qDjStKZ6y4IHQDhJGMlfZwH92.jpg",
      "adult": false,
      "overview": "Gloria (Anne Hathaway) deixa Nova York e volta para sua cidade natal após perder o emprego e o noivo. Ao acompanhar as notícias sobre o ataque de um lagarto gigante a Seul, ela descobre que está misteriosamente conectada mentalmente ao evento. Para evitar novos casos parecidos e uma eventual destruição total do planeta, Gloria precisa controlar os poderes de sua mente e entender por que sua existência aparentemente insignificante tem tamanha responsabilidade no destino do mundo.",
      "release_date": "2017-05-11"
    },
    {
      "vote_count": 408,
      "id": 388399,
      "video": false,
      "vote_average": 6.7,
      "title": "O Dia do Atentado",
      "popularity": 4.95755,
      "poster_path": "/m0NYVvl6makz2EATYh0qRR5JFnL.jpg",
      "original_language": "en",
      "original_title": "Patriots Day",
      "genre_ids": [
        18,
        36,
        53
      ],
      "backdrop_path": "/tiBL4PeaCPKGBz3qO4dJP2KzKop.jpg",
      "adult": false,
      "overview": "Após os atentados terroristas à Maratona de Boston em 2013, um grupo formado pelo Sargento da Polícia Tommy Saunders (Mark Wahlberg), o Agente Especial Richard Deslauries (Kevin Bacon), o Comissário da Polícia Ed Davis (John Goodman), o Sargento Jeffrey Pugliese (J.K. Simmons) e a enfermeira Carol Saunders (Michelle Monaghan) se une aos bravos sobreviventes para identificar e capturar os responsáveis pelo ataque terrorista antes que eles possam fazer novas vítimas.",
      "release_date": "2017-05-11"
    },
    {
      "vote_count": 237,
      "id": 334524,
      "video": false,
      "vote_average": 6.5,
      "title": "Ouro",
      "popularity": 3.843982,
      "poster_path": "/k6HXsr0eSdHY483QZdilwoybLVo.jpg",
      "original_language": "en",
      "original_title": "Gold",
      "genre_ids": [
        12,
        80,
        18
      ],
      "backdrop_path": "/ssoXBG2h5afUGD4NwaeAtpSLjCx.jpg",
      "adult": false,
      "overview": "Kenny Wells (Matthew McConaughey) é um homem americano que tem como sonho mudar de vida. Ele é apresentado ao mundo do Ouro por um geologista picareta que acredita que o pulo do gato será uma viagem para a Indonésia, onde, em uma floresta inóspita, eles encontrariam grandes reservas do metal precioso. O que parecia irreal acaba acontecendo, mas eles vão descobrir que manter o ouro com eles e fugir de ferozes inimigos que querem barrar seus negócios em Wall Street vai ser uma tarefa muito mais complicada do que eles preveram.",
      "release_date": "2017-05-20"
    },
    {
      "vote_count": 122,
      "id": 195590,
      "video": false,
      "vote_average": 5.4,
      "title": "Collide",
      "popularity": 3.787024,
      "poster_path": "/7WqR10HKafhzE9LXEYg0AtM4J6O.jpg",
      "original_language": "en",
      "original_title": "Collide",
      "genre_ids": [
        53,
        28
      ],
      "backdrop_path": "/rjODfN7jhGrG5aklXmsqtOKPJPT.jpg",
      "adult": false,
      "overview": "Depois de um assalto dar errado, Casey Stein (Nicholas Hoult) encontra-se em fuga de uma gangue cruel chefiada por Hagen (Anthony Hopkins). Deixado sem escolha, Casey chama o seu antigo empregador e contrabandista de drogas, Geran (Ben Kingsley) para proteger sua namorada Juliette de Hagen. Assim, ele sai em uma perseguição de carros nas estradas alemãs para salvar o amor da sua vida, antes que seja tarde demais.",
      "release_date": "2017-05-18"
    },
    {
      "vote_count": 135,
      "id": 314095,
      "video": false,
      "vote_average": 5.9,
      "title": "Z: A Cidade Perdida",
      "popularity": 3.429504,
      "poster_path": "/svBXYzY4eM4eV4LufQ6D4cbEN2s.jpg",
      "original_language": "en",
      "original_title": "The Lost City of Z",
      "genre_ids": [
        28,
        12,
        18,
        36
      ],
      "backdrop_path": "/dAQzSsITJVxyk9ChqPLyBEwtGuC.jpg",
      "adult": false,
      "overview": "Nos anos 1920, o lendário explorador britânico Percy Fawcett (Charlie Hunnam) parte numa viagem até a selva amazônica em busca de uma cidade que ele acredita existir: Z. Ele não encontra o lugar e faz várias expedições até descobrir onde fica Z. Em uma dessas viagens, Percy parte rumo ao Mato Grosso e desaparece sem deixar vestígios.",
      "release_date": "2017-06-01"
    },
    {
      "vote_count": 20,
      "id": 333667,
      "video": false,
      "vote_average": 6.1,
      "title": "Rock Dog",
      "popularity": 2.5698,
      "poster_path": "/b8hfXvPsiKHUDKx6HEup4DPWswy.jpg",
      "original_language": "en",
      "original_title": "Rock Dog",
      "genre_ids": [
        12,
        16,
        35,
        10751,
        10402
      ],
      "backdrop_path": "/lsNSEfp4RVE0Rxc9HeyOHcGActm.jpg",
      "adult": false,
      "overview": "Quando um rádio cai do céu, diretamente nas mãos de um atônito Tibetan Mastiff, ele sai de casa em busca da realização de seu maior sonho: tornar-se músico. Sendo assim, Mastiff passará por diversos acontecimentos inesperados.",
      "release_date": "2017-05-04"
    },
    {
      "vote_count": 0,
      "id": 448763,
      "video": false,
      "vote_average": 0,
      "title": "Amor.com",
      "popularity": 2.244115,
      "poster_path": "/oMs1B6TaVBOw8DFjcOWKr9OqJBW.jpg",
      "original_language": "pt",
      "original_title": "Amor.com",
      "genre_ids": [
        10749
      ],
      "backdrop_path": "/qJyuaqYtCBBNzWuxsVIF59mVrrf.jpg",
      "adult": false,
      "overview": "Katrina (Isis Valverde) é uma famosa blogueira de modas que dita tendências no mercado brasileiro através de seus populares vídeos na internet. Fernando (Gil Coelho), por sua vez, é um vlogueiro de um canal de videogames que ainda não é muito famoso, mas que já está fazendo certo sucesso. Quando os dois se conhecem, em uma situação complicada, acabam se apaixonando e o romance dos dois vira \"febre\" na internet, uma febre que eles vão precisar controlar, equilibrando o mundo real e o virtual.",
      "release_date": "2017-06-01"
    },
    {
      "vote_count": 2,
      "id": 375867,
      "video": false,
      "vote_average": 6,
      "title": "Paris Pode Esperar",
      "popularity": 2.002309,
      "poster_path": "/mqcaML9Cn9JbCGavJme6dXJzb72.jpg",
      "original_language": "en",
      "original_title": "Paris Can Wait",
      "genre_ids": [
        10749
      ],
      "backdrop_path": "/gFVxmelNPk8XlUN9uDgH5kg0HFX.jpg",
      "adult": false,
      "overview": "Uma mulher de um produtor de cinema negligenciada tem sua vida alterada para sempre depois de dois dias pela França. Agora ela é seguida por um misterioso homem.",
      "release_date": "2017-06-08"
    },
    {
      "vote_count": 19,
      "id": 292010,
      "video": false,
      "vote_average": 6.3,
      "title": "A Filha",
      "popularity": 1.83906,
      "poster_path": "/5tuRnkwmc2s40bYPYt1q2l6CuaO.jpg",
      "original_language": "en",
      "original_title": "The Daughter",
      "genre_ids": [
        18
      ],
      "backdrop_path": "/n1rZ33LnVE64ZcbyY8vNCKJaXVa.jpg",
      "adult": false,
      "overview": "Longe de casa há anos, Christian volta para a cidade de sua família, a fim de comparecer ao casamento do seu pai. Relembrando o passado, ele se reconecta com o seu amigo de infância, Oliver, e a sua família, que o levará a descobrir um segredo há muito tempo enterrado. Enquanto ele tenta corrigir os erros do passado, sua ações ameaçam destruir as vidas daqueles que ele deixou para trás anos antes.",
      "release_date": "2017-05-04"
    },
    {
      "vote_count": 0,
      "id": 457801,
      "video": false,
      "vote_average": 0,
      "title": "Protocolo Spikes",
      "popularity": 1.762302,
      "poster_path": "/sYCyFlpmXmK1Dt2KDd74JKXdeDj.jpg",
      "original_language": "pt",
      "original_title": "Protocolo Spikes",
      "genre_ids": [
        14,
        878
      ],
      "backdrop_path": "/34EtRSFMER8vSCuavvGwjvgi6wj.jpg",
      "adult": false,
      "overview": "",
      "release_date": "2017-06-10"
    },
    {
      "vote_count": 0,
      "id": 417561,
      "video": false,
      "vote_average": 0,
      "title": "Mulher do Pai",
      "popularity": 1.663043,
      "poster_path": "/mb6G9RFNwpFALxU2geYyJFbVumP.jpg",
      "original_language": "pt",
      "original_title": "Mulher do Pai",
      "genre_ids": [
        18
      ],
      "backdrop_path": null,
      "adult": false,
      "overview": "A adolescente Nalu (Maria Galant) precisa cuidar do pai cego, após a morte da avó que os criou como irmãos. Quando Ruben (Marat Descartes) percebe o amadurecimento da filha, surge uma desconcertante intimidade entre eles. Mas, com a chegada de Rosário, o ciúme ganhará espaço na vida de ambos.",
      "release_date": "2017-06-01"
    },
    {
      "vote_count": 3,
      "id": 373546,
      "video": false,
      "vote_average": 7.3,
      "title": "Punhos de Sangue",
      "popularity": 1.570504,
      "poster_path": "/3jmlSoGiciloQEO323AD2GDOnU.jpg",
      "original_language": "en",
      "original_title": "Chuck",
      "genre_ids": [
        18
      ],
      "backdrop_path": "/z8Hk7JSqXc2c86vAg17f73XSed1.jpg",
      "adult": false,
      "overview": "Drama inspirado na história de Chuck Wepner, boxeador peso-pesado que inspirou a saga Rocky, ele era vendedor de bebidas na cidade de Nova Jersey, mas entrou no ringue 15 vezes com o maior pugilista do mundo, Muhammead Ali.",
      "release_date": "2017-05-25"
    }
  ],
  "page": 1,
  "total_results": 50,
  "dates": {
    "maximum": "2017-06-14",
    "minimum": "2017-05-03"
  },
  "total_pages": 3
}