{
  "page": 1,
  "total_results": 19694,
  "total_pages": 985,
  "results": [
    {
      "vote_count": 3787,
      "id": 321612,
      "video": false,
      "vote_average": 6.8,
      "title": "A Bela e a Fera",
      "popularity": 260.523789,
      "poster_path": "/9V4wl4rnUcLfGuTe4J5NjOFbDil.jpg",
      "original_language": "en",
      "original_title": "Beauty and the Beast",
      "genre_ids": [
        10751,
        14,
        10749
      ],
      "backdrop_path": "/6aUWe0GSl69wMTSWWexsorMIvwU.jpg",
      "adult": false,
      "overview": "Moradora de uma pequena aldeia francesa, Bela (Emma Watson) tem o pai capturado pela Fera e decide entregar sua vida ao estranho ser em troca da liberdade do progenitor. No castelo ela conhece objetos mágicos e descobre que a Fera é na verdade um príncipe que precisa de amor para voltar à forma humana.",
      "release_date": "2017-03-16"
    },
    {
      "vote_count": 263,
      "id": 324852,
      "video": false,
      "vote_average": 5.9,
      "title": "Meu Malvado Favorito 3",
      "popularity": 101.417199,
      "poster_path": "/InJSedsAjy5VUYkanrBFGZngI8.jpg",
      "original_language": "en",
      "original_title": "Despicable Me 3",
      "genre_ids": [
        12,
        16,
        35,
        10751
      ],
      "backdrop_path": "/qslbZBJHUis8PL97Dy2Fsbq8QsA.jpg",
      "adult": false,
      "overview": "Meu Malvado Favorito está de volta, agora com um novo vilão. O ex-ator mirim e astro de TV Balthazar Bratt foi um típico malvado bem-sucedido nos anos 80. De volta à ativa, ele ocupará o posto de novo supervilão em “Meu Malvado Favorito 3” (Despicable Me 3) e causará o terror na vida de Gru, Agnes, Margo, Edith, Dr. Nefario e os atrapalhados Minions.",
      "release_date": "2017-06-30"
    },
    {
      "vote_count": 562,
      "id": 335988,
      "video": false,
      "vote_average": 6.3,
      "title": "Transformers: O Último Cavaleiro",
      "popularity": 93.02762,
      "poster_path": "/bhzoXeQtfhkjEAyN3Q5UGXdNSS0.jpg",
      "original_language": "en",
      "original_title": "Transformers: The Last Knight",
      "genre_ids": [
        28,
        878,
        53,
        12
      ],
      "backdrop_path": "/Ytv7P13rbwQ3mLpCAY8lBTqI5s.jpg",
      "adult": false,
      "overview": "Optimus Prime encontra seu planeta natal, Cybertron, agora um planeta morto, e descobre que foi responsável por matá-lo.  Ele encontra uma maneira de trazer o planeta de volta à vida, mas para isso precisa encontrar um artefato que está na Terra.",
      "release_date": "2017-07-20"
    },
    {
      "vote_count": 4522,
      "id": 263115,
      "video": false,
      "vote_average": 7.5,
      "title": "Logan",
      "popularity": 80.956423,
      "poster_path": "/f0CtZbae9cXj8bkWdCHzUHx5lsR.jpg",
      "original_language": "en",
      "original_title": "Logan",
      "genre_ids": [
        28,
        18,
        878
      ],
      "backdrop_path": "/5pAGnkFYSsFJ99ZxDIYnhQbQFXs.jpg",
      "adult": false,
      "overview": "Em 2029, Logan (Hugh Jackman) ganha a vida como chofer de limousine para cuidar do nonagenário Charles Xavier (Patrick Stewart). Debilitado fisicamente e esgotado emocionalmente, ele é procurado por Gabriela (Elizabeth Rodriguez), uma mexicana que precisa da ajuda do ex-X-Men para defender a pequena Laura Kinney / X-23 (Dafne Keen). Ao mesmo tempo em que se recusa a voltar à ativa, Logan é perseguido pelo mercenário Donald Pierce (Boyd Holbrook), interessado na menina.",
      "release_date": "2017-03-02"
    },
    {
      "vote_count": 386,
      "id": 315635,
      "video": false,
      "vote_average": 7.4,
      "title": "Homem-Aranha: De Volta ao Lar",
      "popularity": 69.14325,
      "poster_path": "/9C8NPGOpDUDPRVe5gSrAayQhPkL.jpg",
      "original_language": "en",
      "original_title": "Spider-Man: Homecoming",
      "genre_ids": [
        28,
        12,
        878
      ],
      "backdrop_path": "/tPpYGm2mVecue7Bk3gNVoSPA5qn.jpg",
      "adult": false,
      "overview": "Depois de atuar ao lado dos Vingadores, chegou a hora do pequeno Peter Parker (Tom Holland) voltar para casa e para a sua vida, já não mais tão normal. Lutando diariamente contra pequenos crimes nas redondezas, ele pensa ter encontrado a missão de sua vida quando o terrível vilão Abutre (Michael Keaton) surge amedrontando a cidade. O problema é que a tarefa não será tão fácil como ele imaginava.",
      "release_date": "2017-07-06"
    },
    {
      "vote_count": 3581,
      "id": 119450,
      "video": false,
      "vote_average": 7.3,
      "title": "Planeta dos Macacos: O Confronto",
      "popularity": 65.718426,
      "poster_path": "/oH3UyOyl081vjdvroRAsiMwWxuD.jpg",
      "original_language": "en",
      "original_title": "Dawn of the Planet of the Apes",
      "genre_ids": [
        878,
        28,
        18,
        53
      ],
      "backdrop_path": "/rjUl3pd1LHVOVfG4IGcyA1cId5l.jpg",
      "adult": false,
      "overview": "Dez anos após a conquista da liberdade, César (Andy Serkis) e os demais macacos vivem em paz na floresta próxima a San Francisco. Lá eles desenvolveram uma comunidade própria, baseada no apoio mútuo, enquanto os humanos enfrentam uma das maiores epidemias de todos os tempos, causada por um vírus criado em laboratório. Sem energia elétrica, um grupo de sobreviventes planeja invadir a floresta e reativar a usina lá instalada. Malcolm (Jason Clarke), único que conhece bem os símios, tenta agir pacificamente e impedir que o confronto aconteça.",
      "release_date": "2014-06-26"
    },
    {
      "vote_count": 944,
      "id": 282035,
      "video": false,
      "vote_average": 5.2,
      "title": "A Múmia",
      "popularity": 64.602915,
      "poster_path": "/vH9Hd7njePEe6xnRrYYaDmF2yqX.jpg",
      "original_language": "en",
      "original_title": "The Mummy",
      "genre_ids": [
        28,
        12,
        14,
        27,
        53
      ],
      "backdrop_path": "/qedJJ2z9oBYKxxO4Pp8qAkfgPst.jpg",
      "adult": false,
      "overview": "Nas profundezas do deserto, uma antiga rainha (Sofia Boutella) cujo destino foi injustamente tirado está mumificada. Apesar de estar sepultada em sua cripta, ela desperta nos dias atuais. Com uma maldade acumulada ao longo dos anos, ela espelha terror desde as areais do Oriente Médio até os becos de Londres.",
      "release_date": "2017-06-08"
    },
    {
      "vote_count": 2578,
      "id": 297762,
      "video": false,
      "vote_average": 7.1,
      "title": "Mulher-Maravilha",
      "popularity": 59.094235,
      "poster_path": "/ujQthWB6c0ojlARk28NSTmqidbF.jpg",
      "original_language": "en",
      "original_title": "Wonder Woman",
      "genre_ids": [
        28,
        12,
        14
      ],
      "backdrop_path": "/hA5oCgvgCxj5MEWcLpjXXTwEANF.jpg",
      "adult": false,
      "overview": "Treinada desde cedo para ser uma guerreira imbatível, Diana Prince (Gal Gadot) nunca saiu da paradisíaca ilha em que é reconhecida como princesa das Amazonas. Quando o piloto Steve Trevor (Chris Pine) se acidenta e cai numa praia do local, ela descobre que uma guerra sem precedentes está se espalhando pelo mundo e decide deixar seu lar certa de que pode parar o conflito. Lutando para acabar com todas as lutas, Diana percebe o alcance de seus poderes e sua verdadeira missão na Terra.",
      "release_date": "2017-06-01"
    },
    {
      "vote_count": 2095,
      "id": 293167,
      "video": false,
      "vote_average": 6.1,
      "title": "Kong: A Ilha da Caveira",
      "popularity": 58.796865,
      "poster_path": "/jhO50nYmGMbhaGAL6VLX5WBH3N7.jpg",
      "original_language": "en",
      "original_title": "Kong: Skull Island",
      "genre_ids": [
        28,
        12,
        14
      ],
      "backdrop_path": "/pGwChWiAY1bdoxL79sXmaFBlYJH.jpg",
      "adult": false,
      "overview": "Um grupo de desbravadores acompanhado de um ex-militar viaja para a mítica Ilha da Caveira, onde seu irmão desapareceu enquanto procurava o soro que teria o poder de curar todas as doenças conhecido como Titan. O homem, além de resgatar o irmão, terá de enfrentar as criaturas que habitam o local e, junto da equipe de exploradores, se aventurar nas profundezas da ilha desconhecida no Pacífico. O que não sabem é que o local é tão bonito quanto traiçoeiro e que estão atravessando para o domínio do mítico Kong.",
      "release_date": "2017-03-09"
    },
    {
      "vote_count": 1527,
      "id": 166426,
      "video": false,
      "vote_average": 6.5,
      "title": "Piratas do Caribe: A Vingança de Salazar",
      "popularity": 53.302681,
      "poster_path": "/xHGwFcaWy6Ng6MagII45P3w0wOw.jpg",
      "original_language": "en",
      "original_title": "Pirates of the Caribbean: Dead Men Tell No Tales",
      "genre_ids": [
        28,
        12,
        35,
        14
      ],
      "backdrop_path": "/tZvdyLP2F6x2TTuh292ceH87qZT.jpg",
      "adult": false,
      "overview": "O Capitão Jack, que anda passando por uma onda de azar, sente os ventos da má sorte soprando com muita força quando os marinheiros fantasmas assassinos, liderados pelo aterrorizante Capitão Salazar (Javier Bardem), escapam do triângulo do diabo decididos a matar todos os piratas em seu caminho, especialmente Jack.",
      "release_date": "2017-05-25"
    },
    {
      "vote_count": 4624,
      "id": 245891,
      "video": false,
      "vote_average": 6.9,
      "title": "De Volta ao Jogo",
      "popularity": 51.451247,
      "poster_path": "/rboZslo3eQWKBQ3QvlO6wGV0J3K.jpg",
      "original_language": "en",
      "original_title": "John Wick",
      "genre_ids": [
        28,
        53
      ],
      "backdrop_path": "/mFb0ygcue4ITixDkdr7wm1Tdarx.jpg",
      "adult": false,
      "overview": "John Wick (Keanu Reeves) já foi um dos assassinos mais temidos da cidade de Nova York, trabalhando em parceria com a máfia russa. Um dia, ele decide se aposentar, e neste período tem que lidar com a triste morte de sua esposa. Vítima de uma doença grave, ela já previa a sua própria morte, e deu de presente ao marido um cachorro para cuidar em seu período de luto. No entanto, poucos dias após o funeral, o cachorro é morto por ladrões que roubam o seu carro. John Wick parte em busca de vingança contra estes homens que ele já conhecia muito bem, e que roubaram o último símbolo da mulher que ele amava.",
      "release_date": "2014-10-24"
    },
    {
      "vote_count": 8223,
      "id": 118340,
      "video": false,
      "vote_average": 7.8,
      "title": "Guardiões da Galáxia",
      "popularity": 48.474798,
      "poster_path": "/jp8VuqoeknyLe56JtFDIqhUaRrZ.jpg",
      "original_language": "en",
      "original_title": "Guardians of the Galaxy",
      "genre_ids": [
        28,
        878,
        12
      ],
      "backdrop_path": "/bHarw8xrmQeqf3t8HpuMY7zoK4x.jpg",
      "adult": false,
      "overview": "O aventureiro do espaço Peter Quill torna-se presa de caçadores de recompensas depois que rouba a esfera de um vilão traiçoeiro, Ronan. Para escapar do perigo, ele faz uma aliança com um grupo de quatro extraterrestres. Quando Quill descobre que a esfera roubada possui um poder capaz de mudar os rumos do universo, ele e seu grupo deverão proteger o objeto para salvar o futuro da galáxia.",
      "release_date": "2014-07-31"
    },
    {
      "vote_count": 2783,
      "id": 337339,
      "video": false,
      "vote_average": 6.8,
      "title": "Velozes e Furiosos 8",
      "popularity": 45.038768,
      "poster_path": "/szI6BlmDQNBoAJF3Zg2qLJe1UEM.jpg",
      "original_language": "en",
      "original_title": "The Fate of the Furious",
      "genre_ids": [
        28,
        80,
        53
      ],
      "backdrop_path": "/jzdnhRhG0dsuYorwvSqPqqnM1cV.jpg",
      "adult": false,
      "overview": "Depois que Brian (Paul Walker) e Mia (Jordana Brewster) se aposentaram, e o resto da equipe foi exonerado, Dom (Vin Diesel) e Letty (Michelle Rodriguez) estão em lua de mel e levam uma vida pacata e completamente normal. Mas a adrenalina do passado acaba voltando com tudo quando uma mulher misteriosa (Charlize Theron) faz com que Dom retorne ao mundo do crime e da velocidade.",
      "release_date": "2017-04-13"
    },
    {
      "vote_count": 2740,
      "id": 283995,
      "video": false,
      "vote_average": 7.6,
      "title": "Guardiões da Galáxia Vol. 2",
      "popularity": 44.696346,
      "poster_path": "/ezSpIN2bUnVnhqZDTk5RTQA33VR.jpg",
      "original_language": "en",
      "original_title": "Guardians of the Galaxy Vol. 2",
      "genre_ids": [
        28,
        12,
        35,
        878
      ],
      "backdrop_path": "/aJn9XeesqsrSLKcHfHP4u5985hn.jpg",
      "adult": false,
      "overview": "Os Guardiões precisam lutar para manter sua recém descoberta família unida, enquanto descobrem os mistérios sobre o verdadeiro pai de Peter Quill. Antigos inimigos se tornam aliados e personagens conhecidos e amados dos quadrinhos virão ao auxílio dos nossos heróis, enquanto o Universo Cinematográfico da Marvel continua se expandindo.",
      "release_date": "2017-04-27"
    },
    {
      "vote_count": 1192,
      "id": 395992,
      "video": false,
      "vote_average": 6.2,
      "title": "Vida",
      "popularity": 43.345809,
      "poster_path": "/e7mb4X2p1sOFDFZTHvuyE0buFw3.jpg",
      "original_language": "en",
      "original_title": "Life",
      "genre_ids": [
        27,
        878,
        53
      ],
      "backdrop_path": "/hES8wGmkxHa54z7hqUMpw5TIs09.jpg",
      "adult": false,
      "overview": "Um time de cientistas a bordo da Estação Espacial Internacional cuja missão de descoberta se transforma em medo puro quando eles encontram uma forma de vida em desenvolvimento que causou a extinção da vida em Marte e agora ameaça a tripulação e a vida na Terra.",
      "release_date": "2017-04-20"
    },
    {
      "vote_count": 7690,
      "id": 135397,
      "video": false,
      "vote_average": 6.5,
      "title": "Jurassic World: O Mundo dos Dinossauros",
      "popularity": 41.243547,
      "poster_path": "/6xdqXJl5ukTvQOl3j0GOuHQnozJ.jpg",
      "original_language": "en",
      "original_title": "Jurassic World",
      "genre_ids": [
        28,
        12,
        878,
        53
      ],
      "backdrop_path": "/dkMD5qlogeRMiEixC4YNPUvax2T.jpg",
      "adult": false,
      "overview": "O Jurassic Park, localizado na ilha Nublar, enfim está aberto ao público. Com isso, as pessoas podem conferir shows acrobáticos com dinossauros e até mesmo fazer passeios bem perto deles, já que agora estão domesticados. Entretanto, a equipe chefiada pela doutora Claire (Bryce Dallas Howard) passa a fazer experiências genéticas com estes seres, de forma a criar novas espécies. Uma delas logo adquire inteligência bem mais alta, logo se tornando uma grande ameaça para a existência humana.",
      "release_date": "2015-06-11"
    },
    {
      "vote_count": 6059,
      "id": 22,
      "video": false,
      "vote_average": 7.4,
      "title": "Piratas do Caribe: A Maldição do Pérola Negra",
      "popularity": 41.033707,
      "poster_path": "/bSzff9RqSJNU8GKtaBbIRqaxGrU.jpg",
      "original_language": "en",
      "original_title": "Pirates of the Caribbean: The Curse of the Black Pearl",
      "genre_ids": [
        12,
        14,
        28
      ],
      "backdrop_path": "/8AUQ7YlJJA9C8kWk8P4YNHIcFDE.jpg",
      "adult": false,
      "overview": "Em pleno século XVII, o pirata Jack Sparrow (Johnny Depp) tem seu navio saqueado e roubado pelo capitão Barbossa (Geoffrey Rush) e sua tripulação. Com o navio de Sparrow, Barbossa invade e saqueia a cidade de Port Royal, levando consigo Elizabeth Swann (Keira Knightley), a filha do governador (Jonathan Pryce). Decidido a recuperar sua embarcação, Sparrow recebe a ajuda de Will Turner (Orlando Bloom), um grande amigo de Elizabeth que parte em seu encalço. Porém, o que ambos não sabem é que o Pérola Negra, navio de Barbossa, foi atingido por uma terrível maldição que faz com que eles naveguem eternamente pelos oceanos e se transformem em esqueletos à noite.",
      "release_date": "2003-08-29"
    },
    {
      "vote_count": 1396,
      "id": 126889,
      "video": false,
      "vote_average": 5.7,
      "title": "Alien: Covenant",
      "popularity": 39.509523,
      "poster_path": "/zecMELPbU5YMQpC81Z8ImaaXuf9.jpg",
      "original_language": "en",
      "original_title": "Alien: Covenant",
      "genre_ids": [
        27,
        878,
        53
      ],
      "backdrop_path": "/kMU8trT43p5LFoJ4plIySMOsZ1T.jpg",
      "adult": false,
      "overview": "Ridley Scott retorna ao universo que criou com ALIEN: COVENANT, um novo capítulo em sua inovadora franquia ALIEN. A tripulação do navio-colônia Covenant, ligada a um remoto planeta no lado distante da galáxia, descobre o que eles acham que é um paraíso inexplorado, mas na verdade é um mundo escuro e perigoso. Quando descobrem uma ameaça além de sua imaginação, devem tentar uma fuga angustiante.",
      "release_date": "2017-05-11"
    },
    {
      "vote_count": 799,
      "id": 305470,
      "video": false,
      "vote_average": 6.4,
      "title": "Power Rangers",
      "popularity": 39.457898,
      "poster_path": "/lMpUb6T07ppA7tznHNFzINbOERh.jpg",
      "original_language": "en",
      "original_title": "Power Rangers",
      "genre_ids": [
        28,
        12,
        878
      ],
      "backdrop_path": "/gfTQaH7h09IaSZw9ubZgP2c7syr.jpg",
      "adult": false,
      "overview": "Power Rangers acompanha a trajetória de cinco adolescentes comuns, que descobrem dons extraordinários quando eles percebem que a sua pequena cidade, Angel Grove, e o mundo inteiro está a beira de ser extinto por uma ameaça alienígena. Escolhidos pelo destino, os jovens heróis descobrem rapidamente que eles são os únicos que podem salvar o planeta. Mas, para isso, eles terão que superar seus problemas da vida real e se unir como os Power Rangers.",
      "release_date": "2017-03-23"
    },
    {
      "vote_count": 8380,
      "id": 76341,
      "video": false,
      "vote_average": 7.2,
      "title": "Mad Max: Estrada da Fúria",
      "popularity": 38.628602,
      "poster_path": "/chMOGs0qNQyIeJnz7ZN9MJOA18T.jpg",
      "original_language": "en",
      "original_title": "Mad Max: Fury Road",
      "genre_ids": [
        28,
        12,
        878,
        53
      ],
      "backdrop_path": "/phszHPFVhPHhMZgo0fWTKBDQsJA.jpg",
      "adult": false,
      "overview": "Assombrado por seu turbulento passado, Max Rockatansky (Tom Hardy) acredita que a melhor maneira de sobreviver é vagar sozinho. No entanto, após ser capturado pelos homens do tirano Immortan Joe (Hugh Keays-Byrne), o guerreiro das estradas se vê no meio de uma guerra mortal, iniciada pela Imperatriz Furiosa (Charlize Theron) na tentativa de resgatar um grupo de garotas e retornar à sua terra natal. Enfurecido, o senhor da guerra convoca os seus garotos de guerra e caça impiedosamente os rebeldes nas estradas do deserto da Austrália. Também tentando fugir, Max aceita ajudar Furiosa em sua luta contra Joe e se vê dividido mais uma vez entre seguir o seu caminho sozinho ou ficar com o grupo.",
      "release_date": "2015-05-14"
    }
  ]
}