{
  "page": 1,
  "total_results": 19640,
  "total_pages": 982,
  "results": [
    {
      "vote_count": 1278,
      "id": 297762,
      "video": false,
      "vote_average": 7,
      "title": "Mulher-Maravilha",
      "popularity": 111.826704,
      "poster_path": "/ujQthWB6c0ojlARk28NSTmqidbF.jpg",
      "original_language": "en",
      "original_title": "Wonder Woman",
      "genre_ids": [
        28,
        12,
        14,
        878
      ],
      "backdrop_path": "/hA5oCgvgCxj5MEWcLpjXXTwEANF.jpg",
      "adult": false,
      "overview": "Antes de ser Mulher-Maravilha, ela era Diana, princesa das Amazonas, treinada para ser uma guerreira imbatível. Criada numa ilha paraíso protegida e escondida, tudo muda quando um piloto americano chega em seu território e avisa sobre um grande conflito tomando forma no mundo. Diana deixa seu lar convencida de que pode impedir a ameaça crescente. Lutando ao lado dos homens em uma guerra para dar fim a todas as outras, Diana descobre seus poderes… e seu destino.",
      "release_date": "2017-06-01"
    },
    {
      "vote_count": 3290,
      "id": 321612,
      "video": false,
      "vote_average": 6.8,
      "title": "A Bela e a Fera",
      "popularity": 78.556983,
      "poster_path": "/9V4wl4rnUcLfGuTe4J5NjOFbDil.jpg",
      "original_language": "en",
      "original_title": "Beauty and the Beast",
      "genre_ids": [
        10402,
        10751,
        14,
        10749
      ],
      "backdrop_path": "/7QshG75xKCmClghQDU1ta2BTaja.jpg",
      "adult": false,
      "overview": "Moradora de uma pequena aldeia francesa, Bela (Emma Watson) tem o pai capturado pela Fera e decide entregar sua vida ao estranho ser em troca da liberdade do progenitor. No castelo ela conhece objetos mágicos e descobre que a Fera é na verdade um príncipe que precisa de amor para voltar à forma humana.",
      "release_date": "2017-03-16"
    },
    {
      "vote_count": 3952,
      "id": 263115,
      "video": false,
      "vote_average": 7.5,
      "title": "Logan",
      "popularity": 66.16228,
      "poster_path": "/f0CtZbae9cXj8bkWdCHzUHx5lsR.jpg",
      "original_language": "en",
      "original_title": "Logan",
      "genre_ids": [
        28,
        18,
        878
      ],
      "backdrop_path": "/miqmTwqvnYiPEdolZv0biI7vFw2.jpg",
      "adult": false,
      "overview": "Em 2029, Logan (Hugh Jackman) ganha a vida como chofer de limousine para cuidar do nonagenário Charles Xavier (Patrick Stewart). Debilitado fisicamente e esgotado emocionalmente, ele é procurado por Gabriela (Elizabeth Rodriguez), uma mexicana que precisa da ajuda do ex-X-Men para defender a pequena Laura Kinney / X-23 (Dafne Keen). Ao mesmo tempo em que se recusa a voltar à ativa, Logan é perseguido pelo mercenário Donald Pierce (Boyd Holbrook), interessado na menina.",
      "release_date": "2017-03-02"
    },
    {
      "vote_count": 1214,
      "id": 166426,
      "video": false,
      "vote_average": 6.6,
      "title": "Piratas do Caribe: A Vingança de Salazar",
      "popularity": 59.384272,
      "poster_path": "/xHGwFcaWy6Ng6MagII45P3w0wOw.jpg",
      "original_language": "en",
      "original_title": "Pirates of the Caribbean: Dead Men Tell No Tales",
      "genre_ids": [
        28,
        12,
        35,
        14
      ],
      "backdrop_path": "/tZvdyLP2F6x2TTuh292ceH87qZT.jpg",
      "adult": false,
      "overview": "O Capitão Jack, que anda passando por uma onda de azar, sente os ventos da má sorte soprando com muita força quando os marinheiros fantasmas assassinos, liderados pelo aterrorizante Capitão Salazar (Javier Bardem), escapam do triângulo do diabo decididos a matar todos os piratas em seu caminho, especialmente Jack.",
      "release_date": "2017-05-25"
    },
    {
      "vote_count": 369,
      "id": 282035,
      "video": false,
      "vote_average": 5.2,
      "title": "A Múmia",
      "popularity": 54.702345,
      "poster_path": "/vH9Hd7njePEe6xnRrYYaDmF2yqX.jpg",
      "original_language": "en",
      "original_title": "The Mummy",
      "genre_ids": [
        28,
        12,
        14,
        27,
        53
      ],
      "backdrop_path": "/qedJJ2z9oBYKxxO4Pp8qAkfgPst.jpg",
      "adult": false,
      "overview": "Nas profundezas do deserto, uma antiga rainha (Sofia Boutella) cujo destino foi injustamente tirado está mumificada. Apesar de estar sepultada em sua cripta, ela desperta nos dias atuais. Com uma maldade acumulada ao longo dos anos, ela espelha terror desde as areais do Oriente Médio até os becos de Londres.",
      "release_date": "2017-06-08"
    },
    {
      "vote_count": 1782,
      "id": 324552,
      "video": false,
      "vote_average": 6.5,
      "title": "John Wick: Um Novo Dia Para Matar",
      "popularity": 37.235392,
      "poster_path": "/k36UzsRQaY6E055cdYPdYbyREer.jpg",
      "original_language": "en",
      "original_title": "John Wick: Chapter 2",
      "genre_ids": [
        53,
        28,
        80
      ],
      "backdrop_path": "/uhgINoAy9mM3gG1kBExgZfFlR47.jpg",
      "adult": false,
      "overview": "Após recuperar seu carro, John Wick (Keanu Reeves) acredita que enfim poderá se aposentar. Entretanto, a reaparição de Santino D'Antonio (Riccardo Scarmacio) atrapalha seus planos. Dono de uma promissória em nome de Wick, por ele usada para deixar o posto de assassino profissional da Alta Cúpula, Santino cobra a dívida existente e insiste para que ele mate sua própria irmã, Gianna (Claudia Gerini).",
      "release_date": "2017-02-16"
    },
    {
      "vote_count": 913,
      "id": 395992,
      "video": false,
      "vote_average": 6.1,
      "title": "Vida",
      "popularity": 34.989826,
      "poster_path": "/98o4tsFkK9j9QtpHXT33V5NH7XC.jpg",
      "original_language": "en",
      "original_title": "Life",
      "genre_ids": [
        27,
        878,
        53
      ],
      "backdrop_path": "/hES8wGmkxHa54z7hqUMpw5TIs09.jpg",
      "adult": false,
      "overview": "Um time de cientistas a bordo da Estação Espacial Internacional cuja missão de descoberta se transforma em medo puro quando eles encontram uma forma de vida em desenvolvimento que causou a extinção da vida em Marte e agora ameaça a tripulação e a vida na Terra.",
      "release_date": "2017-04-20"
    },
    {
      "vote_count": 5807,
      "id": 22,
      "video": false,
      "vote_average": 7.4,
      "title": "Piratas do Caribe: A Maldição do Pérola Negra",
      "popularity": 33.212011,
      "poster_path": "/bSzff9RqSJNU8GKtaBbIRqaxGrU.jpg",
      "original_language": "en",
      "original_title": "Pirates of the Caribbean: The Curse of the Black Pearl",
      "genre_ids": [
        12,
        14,
        28
      ],
      "backdrop_path": "/fQZQYW9Hrg8TpYZH4KgbRptkcCN.jpg",
      "adult": false,
      "overview": "Em pleno século XVII, o pirata Jack Sparrow (Johnny Depp) tem seu navio saqueado e roubado pelo capitão Barbossa (Geoffrey Rush) e sua tripulação. Com o navio de Sparrow, Barbossa invade e saqueia a cidade de Port Royal, levando consigo Elizabeth Swann (Keira Knightley), a filha do governador (Jonathan Pryce). Decidido a recuperar sua embarcação, Sparrow recebe a ajuda de Will Turner (Orlando Bloom), um grande amigo de Elizabeth que parte em seu encalço. Porém, o que ambos não sabem é que o Pérola Negra, navio de Barbossa, foi atingido por uma terrível maldição que faz com que eles naveguem eternamente pelos oceanos e se transformem em esqueletos à noite.",
      "release_date": "2003-08-29"
    },
    {
      "vote_count": 4296,
      "id": 245891,
      "video": false,
      "vote_average": 6.9,
      "title": "De Volta ao Jogo",
      "popularity": 30.74306,
      "poster_path": "/rboZslo3eQWKBQ3QvlO6wGV0J3K.jpg",
      "original_language": "en",
      "original_title": "John Wick",
      "genre_ids": [
        28,
        53
      ],
      "backdrop_path": "/mFb0ygcue4ITixDkdr7wm1Tdarx.jpg",
      "adult": false,
      "overview": "John Wick (Keanu Reeves) já foi um dos assassinos mais temidos da cidade de Nova York, trabalhando em parceria com a máfia russa. Um dia, ele decide se aposentar, e neste período tem que lidar com a triste morte de sua esposa. Vítima de uma doença grave, ela já previa a sua própria morte, e deu de presente ao marido um cachorro para cuidar em seu período de luto. No entanto, poucos dias após o funeral, o cachorro é morto por ladrões que roubam o seu carro. John Wick parte em busca de vingança contra estes homens que ele já conhecia muito bem, e que roubaram o último símbolo da mulher que ele amava.",
      "release_date": "2014-10-24"
    },
    {
      "vote_count": 2,
      "id": 221356,
      "video": false,
      "vote_average": 0,
      "title": "Jumper 2",
      "popularity": 28.74628,
      "poster_path": "/h3ne6V2E5pJqjPIlRCTITlnMhEY.jpg",
      "original_language": "en",
      "original_title": "Jumper 2",
      "genre_ids": [],
      "backdrop_path": null,
      "adult": false,
      "overview": "",
      "release_date": "2017-12-30"
    },
    {
      "vote_count": 2441,
      "id": 283995,
      "video": false,
      "vote_average": 7.6,
      "title": "Guardiões da Galáxia Vol. 2",
      "popularity": 28.405401,
      "poster_path": "/ezSpIN2bUnVnhqZDTk5RTQA33VR.jpg",
      "original_language": "en",
      "original_title": "Guardians of the Galaxy Vol. 2",
      "genre_ids": [
        28,
        12,
        35,
        878
      ],
      "backdrop_path": "/aJn9XeesqsrSLKcHfHP4u5985hn.jpg",
      "adult": false,
      "overview": "Os Guardiões precisam lutar para manter sua recém descoberta família unida, enquanto descobrem os mistérios sobre o verdadeiro pai de Peter Quill. Antigos inimigos se tornam aliados e personagens conhecidos e amados dos quadrinhos virão ao auxílio dos nossos heróis, enquanto o Universo Cinematográfico da Marvel continua se expandindo.",
      "release_date": "2017-04-27"
    },
    {
      "vote_count": 7953,
      "id": 118340,
      "video": false,
      "vote_average": 7.9,
      "title": "Guardiões da Galáxia",
      "popularity": 25.996785,
      "poster_path": "/jp8VuqoeknyLe56JtFDIqhUaRrZ.jpg",
      "original_language": "en",
      "original_title": "Guardians of the Galaxy",
      "genre_ids": [
        28,
        878,
        12
      ],
      "backdrop_path": "/bHarw8xrmQeqf3t8HpuMY7zoK4x.jpg",
      "adult": false,
      "overview": "O aventureiro do espaço Peter Quill torna-se presa de caçadores de recompensas depois que rouba a esfera de um vilão traiçoeiro, Ronan. Para escapar do perigo, ele faz uma aliança com um grupo de quatro extraterrestres. Quando Quill descobre que a esfera roubada possui um poder capaz de mudar os rumos do universo, ele e seu grupo deverão proteger o objeto para salvar o futuro da galáxia.",
      "release_date": "2014-07-31"
    },
    {
      "vote_count": 9083,
      "id": 157336,
      "video": false,
      "vote_average": 8,
      "title": "Interestelar",
      "popularity": 24.004398,
      "poster_path": "/o2eH7rg6XlWLkyjNVAIxQcWkQzi.jpg",
      "original_language": "en",
      "original_title": "Interstellar",
      "genre_ids": [
        12,
        18,
        878
      ],
      "backdrop_path": "/xu9zaAevzQ5nnrsXN6JcahLnG4i.jpg",
      "adult": false,
      "overview": "Após ver a Terra consumindo boa parte de suas reservas naturais, um grupo de astronautas recebe a missão de verificar possíveis planetas para receberem a população mundial, possibilitando a continuação da espécie. Cooper (Matthew McConaughey) é chamado para liderar o grupo e aceita a missão sabendo que pode nunca mais ver os filhos. Ao lado de Brand (Anne Hathaway), Jenkins (Marlon Sanders) e Doyle (Wes Bentley), ele seguirá em busca de uma nova casa. Com o passar dos anos, sua filha Murph (Mackenzie Foy e Jessica Chastain) investirá numa própria jornada para também tentar salvar a população do planeta.",
      "release_date": "2014-11-06"
    },
    {
      "vote_count": 1707,
      "id": 335797,
      "video": false,
      "vote_average": 6.8,
      "title": "Sing - Quem Canta Seus Males Espanta",
      "popularity": 22.955089,
      "poster_path": "/1LEeSindznWQnXIglb7Ica9MITe.jpg",
      "original_language": "en",
      "original_title": "Sing",
      "genre_ids": [
        16,
        35,
        18,
        10751,
        10402
      ],
      "backdrop_path": "/usJKCEMXV3tECgIJj8ZTEndmY2E.jpg",
      "adult": false,
      "overview": "Um empolgado coala chamado Buster decide criar uma competição de canto para aumentar os rendimentos de seu antigo teatro. A disputa movimenta o mundo animal e promove a revelação de diversos talentos da cidade, todos de olho nos 15 minutos de fama e US$ 100 mil dólares de prêmio.",
      "release_date": "2017-12-22"
    },
    {
      "vote_count": 2276,
      "id": 283366,
      "video": false,
      "vote_average": 6.5,
      "title": "O Lar das Crianças Peculiares",
      "popularity": 22.519863,
      "poster_path": "/lniYkYMl5muRKetXM7LNyXEKrHG.jpg",
      "original_language": "en",
      "original_title": "Miss Peregrine's Home for Peculiar Children",
      "genre_ids": [
        18,
        14,
        12
      ],
      "backdrop_path": "/9BVHn78oQcFCRd4M3u3NT7OrhTk.jpg",
      "adult": false,
      "overview": "Após a estranha morte de seu avô (Terence Stamp), o jovem Jake (Asa Butterfield) parte com seu pai para o País de Gales. Lá ele pretende encontrar a srta. Peregrine (Eva Green), atendendo ao último pedido do avô, que lhe disse que \"ela contará tudo\". Só que, ao chegar, descobre que o local onde ela viveria é uma mansão em ruínas, que foi atingida por um míssil durante a Segunda Guerra Mundial. Ao investigar a área, Jake descobre que lá há uma fenda temporal, onde a srta. Peregrine vive e protege várias crianças dotadas de poderes especiais.",
      "release_date": "2016-09-29"
    },
    {
      "vote_count": 2460,
      "id": 337339,
      "video": false,
      "vote_average": 6.8,
      "title": "Velozes e Furiosos 8",
      "popularity": 21.940155,
      "poster_path": "/38RVo4cX1O7Ia6k9WXcxkxprHm.jpg",
      "original_language": "en",
      "original_title": "The Fate of the Furious",
      "genre_ids": [
        28,
        80,
        53
      ],
      "backdrop_path": "/jzdnhRhG0dsuYorwvSqPqqnM1cV.jpg",
      "adult": false,
      "overview": "Depois que Brian (Paul Walker) e Mia (Jordana Brewster) se aposentaram, e o resto da equipe foi exonerado, Dom (Vin Diesel) e Letty (Michelle Rodriguez) estão em lua de mel e levam uma vida pacata e completamente normal. Mas a adrenalina do passado acaba voltando com tudo quando uma mulher misteriosa (Charlize Theron) faz com que Dom retorne ao mundo do crime e da velocidade.",
      "release_date": "2017-04-13"
    },
    {
      "vote_count": 73,
      "id": 335988,
      "video": false,
      "vote_average": 5.8,
      "title": "Transformers: O Último Cavaleiro",
      "popularity": 21.787296,
      "poster_path": "/bhzoXeQtfhkjEAyN3Q5UGXdNSS0.jpg",
      "original_language": "en",
      "original_title": "Transformers: The Last Knight",
      "genre_ids": [
        28,
        878,
        53,
        12
      ],
      "backdrop_path": "/xz1H8XdcnAmXRkV02XIbOVn6mGU.jpg",
      "adult": false,
      "overview": "Optimus Prime encontra seu planeta natal, Cybertron, agora um planeta morto, e descobre que foi responsável por matá-lo.  Ele encontra uma maneira de trazer o planeta de volta à vida, mas para isso precisa encontrar um artefato que está na Terra.",
      "release_date": "2017-07-20"
    },
    {
      "vote_count": 853,
      "id": 324849,
      "video": false,
      "vote_average": 7.1,
      "title": "LEGO Batman: O Filme",
      "popularity": 21.325501,
      "poster_path": "/qVf6lTFzDsBZUbYbk8m9dk9SipX.jpg",
      "original_language": "en",
      "original_title": "The Lego Batman Movie",
      "genre_ids": [
        14,
        28,
        16,
        35,
        10751
      ],
      "backdrop_path": "/gbO4tWvMC0oLbNvHP9Zth3eUeAA.jpg",
      "adult": false,
      "overview": "No spin-off de Uma Aventura Lego, Batman (Will Arnett) descobre que adotou acidentalmente um garoto órfão. Ele se torna ninguém menos que seu ajudante Robin (Michael Cera). A dupla formada pelo arrogante Homem-Morcego e o seu empolgado ajudante deve combater o crime e prender o Coringa (Zach Galifianakis).",
      "release_date": "2017-02-09"
    },
    {
      "vote_count": 1105,
      "id": 126889,
      "video": false,
      "vote_average": 5.9,
      "title": "Alien: Covenant",
      "popularity": 21.003767,
      "poster_path": "/ewVHnq4lUiovxBCu64qxq5bT2lu.jpg",
      "original_language": "en",
      "original_title": "Alien: Covenant",
      "genre_ids": [
        27,
        878,
        53
      ],
      "backdrop_path": "/kMU8trT43p5LFoJ4plIySMOsZ1T.jpg",
      "adult": false,
      "overview": "Ridley Scott retorna ao universo que criou com ALIEN: COVENANT, um novo capítulo em sua inovadora franquia ALIEN. A tripulação do navio-colônia Covenant, ligada a um remoto planeta no lado distante da galáxia, descobre o que eles acham que é um paraíso inexplorado, mas na verdade é um mundo escuro e perigoso. Quando descobrem uma ameaça além de sua imaginação, devem tentar uma fuga angustiante.",
      "release_date": "2017-05-11"
    },
    {
      "vote_count": 7491,
      "id": 135397,
      "video": false,
      "vote_average": 6.5,
      "title": "Jurassic World: O Mundo dos Dinossauros",
      "popularity": 20.487005,
      "poster_path": "/6xdqXJl5ukTvQOl3j0GOuHQnozJ.jpg",
      "original_language": "en",
      "original_title": "Jurassic World",
      "genre_ids": [
        28,
        12,
        878,
        53
      ],
      "backdrop_path": "/dkMD5qlogeRMiEixC4YNPUvax2T.jpg",
      "adult": false,
      "overview": "O Jurassic Park, localizado na ilha Nublar, enfim está aberto ao público. Com isso, as pessoas podem conferir shows acrobáticos com dinossauros e até mesmo fazer passeios bem perto deles, já que agora estão domesticados. Entretanto, a equipe chefiada pela doutora Claire (Bryce Dallas Howard) passa a fazer experiências genéticas com estes seres, de forma a criar novas espécies. Uma delas logo adquire inteligência bem mais alta, logo se tornando uma grande ameaça para a existência humana.",
      "release_date": "2015-06-11"
    }
  ]
}